%YAML 1.1
%TAG !u! tag:unity3d.com,2011:
--- !u!21 &2100000
Material:
  serializedVersion: 6
  m_ObjectHideFlags: 0
  m_CorrespondingSourceObject: {fileID: 0}
  m_PrefabInstance: {fileID: 0}
  m_PrefabAsset: {fileID: 0}
  m_Name: LavaFallMaterial
  m_Shader: {fileID: -6465566751694194690, guid: 84988086da2015f48be22c4bfc74eee0,
    type: 3}
  m_ShaderKeywords: 
  m_LightmapFlags: 4
  m_EnableInstancingVariants: 0
  m_DoubleSidedGI: 0
  m_CustomRenderQueue: -1
  stringTagMap:
    MotionVector: User
  disabledShaderPasses:
  - MOTIONVECTORS
  m_SavedProperties:
    serializedVersion: 3
    m_TexEnvs:
    - Texture2D_5955E813:
        m_Texture: {fileID: 2800000, guid: 3b2a872d8fd1e854b8342707c21d1210, type: 3}
        m_Scale: {x: 1, y: 1}
        m_Offset: {x: 0, y: 0}
    - Texture2D_88528D5:
        m_Texture: {fileID: 2800000, guid: 6b187ebe3a7250848839ed369c840ced, type: 3}
        m_Scale: {x: 1, y: 1}
        m_Offset: {x: 0, y: 0}
    m_Floats:
    - Vector1_1B07DFF6: 0
    - Vector1_249A650E: 0.5
    - Vector1_3B9CAC54: 16.74
    - Vector1_43FDB54C: 287
    - Vector1_4516A4AD: 0.5
    - Vector1_606FCF3D: 0.1
    - Vector1_62C6986C: 5
    - Vector1_AEB819F: 2
    - Vector1_C363BFA3: 0.02
    - Vector1_C918F8A7: 1
    m_Colors:
    - Color_27DC08AD: {r: 51.984146, g: 12.027704, b: 0, a: 1}
    - Color_7C32ABE2: {r: 1, g: 0.88496786, b: 0.042452812, a: 1}
    - Vector2_1F31D6E5: {r: 0.01, g: 0, b: 0, a: 0}
    - Vector2_26E28480: {r: 0.2, g: 0, b: 0, a: 0}
    - Vector2_655D89F6: {r: 0.2, g: 0.2, b: 0, a: 0}
    - Vector2_6CD9BB02: {r: 0.24, g: 2.2, b: 0, a: 0}
    - Vector2_96F655E3: {r: 0.1, g: 1.79, b: 0, a: 0}
    - Vector2_B74CF6C7: {r: 0, g: 0.05, b: 0, a: 0}
    - Vector2_C14BDBDA: {r: 2, g: 2, b: 0, a: 0}
